Modeling
…
##  Attaching packages  tidyverse 1.2.1 

##  ggplot2 3.1.0      purrr   0.2.5
##  tibble  1.4.2      dplyr   0.7.8
##  tidyr   0.8.2      stringr 1.3.1
##  readr   1.3.1      forcats 0.3.0

##  Conflicts  tidyverse_conflicts() 
##  dplyr::filter() masks stats::filter()
##  dplyr::lag()    masks stats::lag()

txhousing %>%
  filter(city == "Paris")

## # A tibble: 187 x 9
##    city   year month sales  volume median listings inventory  date
##    <chr> <int> <int> <dbl>   <dbl>  <dbl>    <dbl>     <dbl> <dbl>
##  1 Paris  2000     1    19 1440000  71700      286       7.5 2000 
##  2 Paris  2000     2    31 2605000  69400      287       7.5 2000.
##  3 Paris  2000     3    37 2590000  66200      285       7.5 2000.
##  4 Paris  2000     4    41 3340000  66200      273       7   2000.
##  5 Paris  2000     5    55 3815000  58600      280       7   2000.
##  6 Paris  2000     6    39 3295000  79200      273       6.9 2000.
##  7 Paris  2000     7    39 3400000  71200      300       7.7 2000.
##  8 Paris  2000     8    61 4185200  70000      319       7.9 2001.
##  9 Paris  2000     9    41 3490000  75000      315       7.9 2001.
## 10 Paris  2000    10    35 2535000  72100      343       8.6 2001.
## # ... with 177 more rows
…
